30 112 392
48 256 392
12 0 72
12 24 32
12 64 48
12 72 48
18 88 0
30 0 168
0 56 168
0 72 200
0 40 216
0 72 216
18 40 392
0 88 248
0 104 232
0 120 128
0 240 184
48 392 176
42 368 176
0 200 120
30 288 72
0 160 112
120 240 136
120 272 208
132 176 192
18 8 0
24 32 0
18 0 72
6 32 88
6 16 96
6 40 88
6 48 88
24 64 0
12 88 48
30 120 0
24 24 8
24 0 136
30 0 192
0 104 136
0 96 136
0 128 128
0 64 176
0 56 176
0 80 184
0 32 184
0 32 176
18 0 176
0 16 168
0 24 184
18 0 200
30 0 240
30 0 256
18 8 392
18 0 352
12 0 376
18 88 392
18 96 392
6 96 312
6 120 312
24 104 392
0 80 192
0 64 224
0 72 232
0 96 248
0 88 264
0 120 264
0 120 256
0 120 232
0 104 224
0 152 240
0 144 264
0 160 264
6 136 312
6 160 312
0 176 272
0 184 272
0 216 272
42 192 392
24 152 392
24 192 392
36 304 344
36 248 392
36 264 392
48 288 392
42 240 392
48 336 376
48 392 248
48 392 208
42 368 224
0 248 208
0 232 272
0 256 192
0 256 184
0 248 160
0 248 152
18 216 56
24 200 8
24 136 0
0 160 120
0 136 128
0 152 128
0 160 128
0 176 144
0 168 128
0 184 128
0 192 120
42 144 0
42 160 0
48 232 0
48 240 0
42 248 0
36 216 0
42 280 0
48 312 0
48 352 56
60 392 184
60 392 64
60 392 32
60 392 0
54 360 0
60 312 0
60 304 0
120 256 152
132 240 200
72 392 80
72 392 88
72 392 120
78 392 144
78 392 152
78 392 160
72 392 152
78 392 248
72 392 272
78 392 224
72 392 200
54 392 264
60 392 264
66 392 264
54 360 392
54 320 392
60 392 368
66 360 392
60 304 392
114 256 264
132 200 224
132 176 200
114 216 280
108 184 288
96 136 280
114 144 248
108 120 184
108 120 176
132 232 176
54 208 0
114 200 120
108 152 128
12 0 8
12 0 16
12 0 24
12 0 32
12 0 56
12 0 40
12 8 24
12 8 8
12 8 0
12 8 16
12 16 24
12 0 48
12 0 0
18 0 0
18 0 8
18 0 16
18 16 0
18 24 0
18 0 24
24 0 56
18 0 32
18 0 40
18 0 48
18 0 56
18 0 64
24 0 72
24 0 88
18 0 80
18 0 88
18 0 96
12 0 104
12 0 96
12 0 88
6 0 104
6 0 96
12 0 80
12 0 64
6 8 96
24 48 0
18 40 0
18 48 0
18 32 0
12 32 40
12 56 48
12 80 48
18 80 0
6 72 88
6 80 88
6 104 80
6 128 80
12 96 48
12 104 48
12 112 48
18 120 0
18 112 0
18 104 0
18 96 0
24 88 0
24 120 0
18 56 0
18 72 0
24 80 0
18 64 0
24 56 0
24 96 0
24 104 0
30 112 0
30 104 0
30 96 0
36 120 0
30 128 0
42 120 0
42 128 0
36 104 0
36 96 0
36 88 0
30 88 0
30 80 0
30 72 0
30 56 0
30 64 0
24 0 64
24 40 0
24 72 0
24 0 80
24 0 96
24 0 104
30 8 104
30 0 152
30 0 136
24 0 112
24 0 168
24 0 176
30 0 184
30 0 160
0 120 168
0 112 168
0 104 184
0 96 184
0 96 176
0 96 168
0 88 160
0 96 160
0 88 168
0 104 176
0 88 192
0 104 192
0 104 168
0 128 168
0 104 160
0 112 160
0 128 160
0 128 152
0 112 152
0 128 144
0 120 144
0 112 144
0 120 136
0 112 136
0 112 128
0 104 128
0 96 128
0 88 128
0 104 144
0 96 144
0 104 152
0 96 152
0 80 160
0 88 152
0 80 152
0 88 144
0 80 144
0 88 136
0 80 136
0 80 128
0 72 136
0 72 144
0 72 152
0 64 152
0 64 160
0 56 160
0 64 168
0 72 160
0 72 168
0 80 168
0 88 176
0 72 176
0 80 176
0 88 184
0 72 184
0 72 192
0 64 184
0 64 192
0 56 184
0 56 192
0 48 192
0 48 184
0 48 176
0 48 168
0 40 168
0 32 168
0 40 176
0 40 184
6 0 144
6 0 128
6 0 120
6 0 112
12 0 112
18 0 112
18 0 120
18 0 128
24 0 120
18 0 136
18 0 144
18 0 160
18 0 168
18 0 184
12 0 192
12 0 184
6 0 160
6 0 152
0 16 192
0 24 176
0 24 168
0 8 168
0 8 176
6 0 176
0 8 184
0 0 192
0 8 200
0 8 208
0 16 200
0 16 208
0 24 200
12 0 216
0 32 208
0 32 216
0 16 216
0 16 224
0 8 216
0 8 224
0 8 232
6 0 240
6 0 248
6 0 264
6 0 272
0 48 224
0 56 240
0 56 232
0 56 224
0 56 216
0 48 216
0 64 208
0 56 208
0 56 200
0 48 200
0 40 200
0 48 208
18 0 272
18 0 264
12 0 264
18 0 240
18 0 232
18 0 224
18 0 216
12 0 200
18 0 208
24 0 200
24 0 208
30 0 200
30 0 208
30 0 216
30 0 224
24 0 216
24 0 224
24 0 232
24 0 240
30 0 232
30 0 248
30 0 264
24 0 248
24 0 264
18 0 280
18 0 288
24 0 280
24 0 296
24 0 304
30 8 288
24 0 328
24 0 336
24 40 392
24 48 392
24 56 392
24 32 392
24 24 392
18 0 312
18 0 336
24 0 312
24 0 320
18 0 344
18 0 376
18 0 384
18 0 368
18 0 360
18 16 392
18 24 392
18 0 328
18 0 392
12 0 392
12 0 384
12 8 392
12 8 384
12 16 376
12 24 368
12 0 368
12 0 360
12 0 352
12 0 344
12 0 336
12 0 328
12 0 312
6 24 304
6 16 304
6 8 312
6 8 304
6 0 304
6 0 296
6 0 288
6 0 280
12 0 272
12 0 280
12 0 288
12 0 296
18 0 296
18 0 320
12 0 304
6 40 304
6 32 304
6 64 312
12 48 352
18 48 392
18 64 392
18 56 392
18 32 392
24 88 392
24 80 392
24 72 392
24 64 392
18 72 392
18 80 392
12 72 352
6 88 312
6 104 312
6 112 312
6 128 312
12 112 344
12 120 344
12 104 344
18 104 392
18 128 384
24 96 392
24 120 392
30 128 392
30 120 392
36 120 392
36 112 392
36 104 392
30 104 392
30 96 392
30 80 392
30 64 392
30 72 392
36 96 392
42 120 392
42 128 392
0 64 200
0 80 208
0 72 224
0 88 232
0 80 224
0 88 216
0 80 216
0 88 208
0 80 200
0 72 208
0 64 216
0 80 232
0 80 240
0 72 240
0 64 240
0 64 248
0 72 248
0 64 256
0 80 272
0 88 272
0 80 264
0 80 256
0 80 248
0 88 256
0 96 256
0 104 256
0 96 264
0 96 272
0 104 272
0 120 272
0 104 264
0 112 264
0 112 256
0 128 256
0 120 248
0 112 248
0 104 248
0 104 240
0 96 240
0 88 240
0 96 232
0 96 224
0 120 240
0 120 224
0 120 216
0 104 216
0 96 216
0 88 200
0 96 208
0 96 200
0 96 192
0 104 200
0 120 208
0 136 232
0 136 240
0 136 248
0 160 216
0 168 240
0 152 248
0 144 256
0 128 264
0 128 272
0 152 272
0 160 272
0 168 280
0 152 280
0 144 272
0 144 280
0 136 272
0 136 280
6 144 312
6 152 312
0 160 288
0 176 280
0 176 288
0 184 288
0 192 288
0 200 288
0 184 280
0 216 280
0 208 280
0 224 272
0 208 272
0 216 256
0 208 240
0 200 240
0 184 240
0 200 248
0 200 272
0 200 280
0 192 280
0 200 224
0 224 208
0 216 248
18 224 336
48 152 392
48 160 392
48 168 392
48 176 392
48 184 392
48 192 392
48 200 392
48 208 392
48 224 392
48 232 392
42 200 392
42 208 392
42 216 392
42 224 392
36 224 392
36 216 392
36 168 392
36 152 392
42 168 392
42 144 392
36 136 392
36 144 392
36 160 392
30 168 392
30 152 392
30 144 392
30 136 392
24 136 392
24 160 392
24 168 392
18 168 368
12 160 344
12 152 344
12 128 344
12 136 344
12 144 344
24 232 360
12 176 336
18 216 344
18 200 352
18 184 360
24 224 368
24 184 392
24 176 392
30 184 392
30 200 392
30 208 392
30 216 392
30 224 392
30 192 392
30 176 392
36 176 392
36 184 392
36 192 392
36 200 392
36 208 392
36 240 392
36 232 392
30 232 392
30 240 392
30 256 368
24 240 352
24 248 344
24 256 336
36 320 312
24 272 320
24 264 328
36 312 328
36 272 384
36 288 360
36 296 352
42 280 392
42 288 392
48 312 392
42 312 368
48 304 392
48 296 392
42 296 392
42 232 392
42 272 392
48 248 392
48 264 392
48 272 392
48 280 392
48 320 392
48 328 392
48 352 336
48 368 304
42 336 320
48 360 320
42 344 304
36 328 296
48 376 288
42 360 264
48 384 264
48 392 240
48 392 232
48 392 224
42 368 232
48 392 216
48 392 200
42 368 216
42 368 208
42 368 192
0 256 200
0 256 208
0 256 224
0 256 232
0 256 248
0 248 248
0 256 240
0 248 224
0 256 216
0 248 216
0 240 208
0 240 216
0 240 224
0 240 240
0 240 248
0 232 248
0 232 256
0 240 256
0 248 256
0 232 264
6 272 248
12 288 240
0 264 200
6 280 200
6 280 192
6 280 184
6 280 176
6 280 168
0 264 168
0 264 184
0 264 192
0 248 184
0 248 176
0 256 168
0 248 168
0 256 160
0 232 168
0 232 176
0 224 176
0 232 184
0 216 184
0 232 192
0 216 128
0 224 128
0 216 136
0 232 136
0 232 160
0 232 152
0 232 144
0 240 144
0 240 136
0 232 128
6 256 128
6 272 152
30 312 104
30 256 32
24 272 80
24 256 64
30 232 0
24 224 32
18 232 64
30 216 0
30 224 0
30 240 8
30 248 16
36 224 0
0 224 120
0 216 120
12 200 72
12 168 56
36 200 0
36 184 0
36 168 0
30 168 0
30 192 0
30 200 0
30 208 0
24 184 0
24 176 0
24 168 0
24 160 0
24 152 0
18 136 8
24 128 0
30 152 0
12 160 56
6 136 80
6 144 80
0 128 120
0 136 120
0 128 136
0 136 136
0 136 160
0 144 184
0 152 184
0 144 152
0 160 152
0 160 144
0 144 128
0 152 120
0 168 112
0 176 112
0 168 120
0 176 120
0 176 128
0 168 144
0 176 176
0 184 192
0 184 168
0 200 144
0 184 136
0 200 128
0 184 120
0 208 120
0 192 112
0 200 112
0 208 112
0 184 112
36 128 0
36 136 0
36 152 0
36 160 0
36 144 0
42 136 0
42 168 0
48 152 0
48 160 0
48 176 0
48 184 0
42 176 0
42 184 0
42 216 0
48 200 0
48 208 0
48 224 0
48 248 0
42 224 0
42 232 0
42 256 0
42 200 0
36 240 0
36 248 0
36 280 24
36 264 0
42 288 0
42 272 0
42 264 0
48 264 0
48 280 0
48 304 0
48 328 0
42 296 0
42 304 16
42 320 40
36 296 48
42 336 72
42 328 56
36 312 72
42 344 88
48 368 88
48 376 104
48 384 136
42 360 136
42 368 160
42 368 168
42 368 184
48 392 152
48 392 160
48 392 168
48 392 184
48 392 192
54 392 176
60 392 192
60 392 176
54 392 160
54 392 152
54 392 144
66 392 192
60 392 168
60 392 160
60 392 152
60 392 144
66 392 152
66 392 144
66 392 136
60 392 128
60 392 120
60 392 112
60 392 104
66 392 96
54 392 136
54 392 128
54 392 120
60 392 96
54 392 112
54 392 104
54 392 96
54 392 88
54 392 80
54 384 64
60 392 72
66 392 88
66 392 80
66 392 72
66 392 64
60 392 24
66 392 48
66 392 32
66 392 16
66 392 8
66 384 0
66 376 0
60 376 0
60 384 0
60 368 0
60 392 8
60 392 16
54 376 40
60 392 40
60 392 48
54 368 16
54 352 0
54 344 0
54 336 0
60 336 0
60 344 0
60 352 0
60 360 0
66 360 0
60 288 0
60 296 0
60 328 0
54 328 0
54 320 0
48 320 0
48 296 0
54 312 0
54 304 0
54 296 0
54 288 0
54 280 0
48 288 0
54 272 0
54 256 0
54 248 0
60 264 0
60 272 0
60 280 0
120 264 160
114 272 152
114 280 168
114 288 184
114 288 192
114 288 200
120 272 200
126 256 176
126 256 192
126 256 184
126 248 168
120 248 144
114 248 128
114 256 136
72 392 112
72 392 104
72 392 96
72 392 72
66 392 0
66 368 0
66 392 112
66 392 120
66 392 128
72 392 136
72 392 128
78 384 136
72 392 144
78 392 168
72 392 176
66 392 160
66 392 168
66 392 176
66 392 184
78 392 184
78 392 176
78 392 192
78 392 200
78 392 208
78 392 216
78 392 232
78 392 240
78 392 256
72 392 264
72 392 256
72 392 232
72 392 216
72 392 208
66 392 216
66 392 200
66 392 208
60 392 200
60 392 208
60 392 216
60 392 224
66 392 224
66 392 232
54 392 208
54 392 240
60 392 240
54 392 256
54 392 272
66 392 240
66 392 248
60 392 248
60 392 256
60 392 272
66 392 256
66 392 272
60 392 280
60 392 288
60 392 304
60 392 320
60 392 328
54 392 280
54 392 288
54 392 296
54 392 304
54 392 312
54 392 320
54 384 336
54 352 392
54 344 392
54 336 392
54 328 392
60 320 392
54 368 384
60 392 344
60 392 360
60 392 376
60 392 384
60 376 392
60 392 392
60 384 392
66 392 360
60 392 352
60 392 336
60 368 392
60 360 392
66 368 392
66 376 392
66 392 368
66 392 376
66 392 384
66 392 392
66 384 392
72 392 328
66 392 336
66 392 320
72 392 320
72 392 312
72 392 304
72 392 296
72 392 288
72 392 280
66 392 280
66 392 288
60 392 312
66 392 304
66 392 312
60 352 392
60 344 392
60 336 392
60 328 392
60 256 392
60 264 392
60 272 392
60 280 392
60 288 392
60 296 392
60 312 392
54 296 392
54 304 392
54 312 392
54 288 392
54 280 392
54 272 392
54 264 392
54 256 392
54 248 392
120 272 216
114 288 216
114 280 232
114 272 248
114 264 256
120 264 240
120 256 248
120 248 256
126 248 240
126 256 224
126 256 216
126 256 208
126 256 200
132 232 208
132 216 216
126 240 248
126 224 256
126 192 248
120 184 264
126 176 240
132 184 216
132 176 208
54 232 392
54 224 392
54 216 392
54 208 392
54 192 392
54 200 392
60 232 384
54 240 392
114 232 280
114 208 280
120 208 272
114 192 280
114 200 280
108 176 288
108 160 280
114 160 264
114 168 272
114 152 256
108 136 256
96 112 256
96 120 264
108 144 264
96 128 272
96 96 208
96 104 240
102 112 240
126 160 208
126 168 224
120 160 248
108 120 224
120 144 216
120 144 208
102 104 208
120 144 200
126 160 184
126 160 192
102 112 160
108 136 144
114 152 144
114 144 152
114 136 168
120 160 152
120 168 144
126 176 160
132 176 184
132 184 176
138 200 192
132 200 160
126 208 144
126 216 144
132 208 160
126 240 160
132 240 184
96 96 192
96 112 144
96 104 160
48 168 0
54 200 0
54 216 0
54 224 0
54 232 0
54 240 0
114 232 120
120 224 128
120 216 128
120 208 128
114 192 120
120 184 136
114 184 120
108 176 112
108 160 120
114 168 128
108 144 136
114 160 136
102 136 128
96 144 112
1150 122 948
7 248 247
443 442 357
47 29 193
185 186 187
311 310 309
519 520 522
41 309 307
1032 1031 1044
416 417 425
169 168 164
222 223 221
191 2 27
353 348 355
210 208 209
229 223 222
783 784 782
110 830 831
26 173 197
810 812 774
583 701 700
175 179 178
248 46 247
8 42 297
480 489 490
557 558 553
355 348 346
372 373 371
396 377 392
354 357 363
19 105 801
342 46 334
179 160 178
577 548 74
408 458 407
441 434 433
92 722 721
1160 934 935
616 79 626
616 626 617
82 645 81
1160 109 825
1104 593 592
302 303 300
720 91 690
716 854 717
906 889 888
895 906 888
276 38 275
559 560 557
763 770 769
740 741 735
927 928 839
843 119 840
737 94 739
122 938 948
832 833 754
1133 1139 1140
969 968 863
1067 1070 142
115 969 863
139 1022 1021
590 591 77
546 525 524
981 1000 1004
729 727 728
525 526 523
602 609 608
427 426 428
171 158 157
165 157 158
1086 1077 1078
1149 152 1145
1112 1103 586
372 44 349
524 525 66
554 555 74
1096 1097 144
1028 1036 1037
787 100 785
214 210 209
172 164 173
289 291 292
25 164 172
100 101 98
178 160 167
581 579 75
25 172 26
218 216 32
158 190 28
158 159 190
285 284 286
179 180 192
174 159 158
280 38 39
163 156 157
164 196 195
26 238 235
201 164 200
201 200 33
6 201 33
1139 151 1135
224 231 232
174 175 176
777 208 776
234 233 231
151 1132 150
219 32 235
226 773 97
107 810 811
297 42 41
1153 175 169
35 1153 169
194 219 235
213 212 220
308 370 491
176 161 159
236 239 234
181 183 27
295 296 8
189 190 187
39 38 276
314 296 315
36 328 326
538 492 498
355 346 344
255 260 263
297 298 295
313 8 314
41 42 309
540 542 262
244 329 36
45 338 48
303 43 301
69 544 545
781 99 780
801 803 19
793 791 792
260 255 254
280 286 284
9 60 306
542 543 262
266 265 263
304 301 43
306 60 43
202 290 203
243 237 175
312 309 42
501 11 500
315 317 314
253 262 251
313 312 42
266 267 268
253 260 254
244 36 245
436 450 435
181 240 183
287 286 288
27 237 181
45 48 44
243 181 237
245 181 243
185 184 182
245 241 182
329 319 328
159 161 190
333 381 344
334 333 344
317 313 314
45 44 317
305 306 43
283 285 298
295 293 294
41 302 299
441 435 434
311 371 310
464 426 457
276 277 39
386 384 385
290 28 291
352 354 362
512 513 507
318 44 372
385 383 37
541 262 253
357 440 508
49 332 383
352 362 10
184 187 188
316 296 294
391 390 388
444 443 357
462 464 463
398 446 374
374 397 400
396 359 377
402 401 395
1116 1120 149
441 430 54
441 54 439
456 426 12
415 53 432
1123 403 395
1123 405 403
404 395 403
405 404 403
480 478 479
412 422 404
356 355 344
441 448 451
413 402 395
442 441 357
521 518 519
488 489 482
439 425 427
416 425 54
427 428 439
519 57 468
1073 669 668
483 484 488
418 405 416
477 59 0
472 471 474
607 611 606
493 62 495
371 370 310
390 378 379
784 785 782
515 527 63
252 266 263
547 69 548
354 363 362
496 532 537
370 373 369
368 501 500
499 492 538
513 503 507
441 432 431
441 433 432
306 491 9
632 631 640
90 572 570
539 536 542
269 268 271
295 294 296
74 71 554
67 528 533
364 61 365
363 364 362
61 11 501
528 14 529
69 546 549
344 358 359
437 508 438
540 539 542
515 63 514
780 273 271
468 57 466
428 429 439
564 75 74
254 261 541
573 574 578
551 524 65
552 559 551
564 569 75
555 564 74
524 66 65
511 509 64
74 548 71
1073 668 1074
559 557 70
71 550 70
702 705 703
549 546 550
617 73 618
572 76 570
645 627 79
1104 592 1103
1101 598 593
581 580 579
1101 593 1102
1061 1102 1104
404 414 395
1103 589 588
586 490 489
646 654 655
652 646 655
1076 666 1106
665 82 667
637 604 589
59 483 0
473 469 468
473 468 466
474 56 476
613 477 478
582 797 547
471 58 469
606 612 478
560 469 58
560 58 563
604 602 608
562 73 563
618 73 562
600 634 601
1061 1074 1075
603 610 607
667 668 665
598 597 593
82 81 1
598 601 597
634 633 601
631 635 639
663 661 659
592 597 596
17 859 861
645 654 646
604 588 589
694 695 708
1048 979 1049
786 795 787
208 210 211
718 719 716
721 700 89
577 547 548
727 724 726
861 859 115
864 865 857
574 573 76
18 858 854
716 18 854
976 975 983
1003 998 1011
860 689 686
568 571 580
652 655 656
797 730 798
707 706 709
474 59 477
688 686 689
713 688 689
75 577 74
721 722 16
731 583 700
16 727 729
16 729 731
93 736 726
91 89 690
722 723 724
777 775 772
722 727 16
728 726 736
827 755 748
108 827 109
793 792 103
106 812 810
949 122 1150
760 765 766
804 807 802
784 796 786
228 809 813
795 794 103
729 730 731
799 801 800
102 794 795
800 801 104
269 266 268
788 781 785
805 804 105
794 793 103
790 21 98
759 807 804
759 777 807
777 209 208
802 807 793
225 808 227
489 1112 586
932 936 935
96 95 749
750 749 95
816 1155 1156
225 226 808
770 763 811
34 226 225
228 813 815
224 223 230
226 97 809
111 751 752
1158 1159 935
124 891 125
827 824 826
734 733 732
746 747 742
748 96 749
823 1157 153
1145 1144 1146
731 730 583
898 955 899
715 855 18
17 18 855
928 929 925
857 856 853
717 853 856
129 128 130
18 17 858
874 960 875
725 740 94
852 850 717
852 851 850
987 985 984
89 91 721
117 895 888
883 879 891
1016 1017 1027
1016 1027 1026
127 952 126
893 890 892
860 862 115
915 914 912
915 916 918
865 866 856
583 730 797
890 116 888
833 841 834
741 733 735
897 117 908
925 931 841
926 927 113
835 833 112
844 832 746
949 951 122
843 842 844
832 745 747
112 833 834
832 754 745
931 834 841
1150 948 152
844 842 832
876 882 881
880 875 881
906 898 899
1162 1163 935
961 962 874
951 955 939
951 939 122
1037 1036 143
127 124 125
127 954 953
894 896 116
127 953 952
127 964 130
893 894 890
894 116 890
958 876 959
871 880 866
871 865 870
128 127 130
127 962 961
115 863 861
967 872 869
862 867 970
682 681 995
1035 141 1034
1043 1010 1044
682 995 991
1012 86 1013
123 1088 1087
987 134 986
697 693 692
977 982 978
683 684 682
687 688 713
997 135 1002
1025 1016 140
135 86 998
132 1052 1051
1001 1002 1000
650 1017 675
674 1017 650
981 979 131
1025 1031 1032
1002 135 136
1044 1033 1024
1056 1048 1055
698 697 692
1034 1036 1028
1060 1022 141
658 82 657
650 675 677
705 575 584
132 1005 1052
1020 1060 1059
668 657 665
1016 1010 1009
1035 138 1057
1018 671 1019
1058 1019 1059
656 80 651
652 656 651
1061 1062 1074
701 702 699
487 486 488
123 946 1089
647 585 622
1061 1101 1102
1099 595 1100
1145 1098 145
1086 1087 1077
1047 979 1048
138 1028 1030
1028 1037 1030
1085 1086 1082
170 157 156
948 938 945
583 702 701
582 576 575
1106 84 595
599 598 594
1061 1100 1101
1111 1061 1105
1108 1061 1111
611 613 612
1111 1105 1110
1100 594 1101
147 1112 1110
1129 1130 1125
407 406 486
482 481 0
481 479 0
611 78 613
1120 1117 149
1173 1153 35
244 245 1152
444 361 445
375 359 396
414 413 395
436 411 450
1125 1134 145
1136 1135 1153
920 928 927
1139 1132 151
1146 1144 1142
1151 1145 152
1136 1153 1173
1098 1125 145
766 751 111
760 764 765
164 168 156
168 169 156
1087 1088 1077
169 170 156
1136 1138 1135
1139 1133 1132
245 243 1154
1156 823 153
165 163 157
814 762 819
760 111 829
740 739 94
1141 1170 1166
907 848 889
928 925 839
923 924 840
1140 1139 1138
1146 1142 1141
28 166 162
165 162 166
1172 1140 1137
1138 1139 1135
28 193 29
1132 1134 1125
156 163 164
25 169 164
238 194 235
184 183 240
162 165 158
26 197 195
172 173 26
241 185 182
174 176 159
162 158 28
160 192 190
30 3 28
166 28 3
166 163 165
31 3 30
164 166 3
183 191 27
164 195 197
171 174 158
163 166 164
41 299 297
99 779 40
26 35 169
25 26 169
235 32 236
27 2 180
324 325 323
170 171 157
199 198 31
220 212 211
176 175 177
178 167 177
245 242 241
175 178 177
175 174 171
175 171 170
175 170 169
176 177 161
177 167 161
180 179 175
179 192 160
190 2 191
327 325 246
241 242 185
192 2 190
242 186 185
184 188 183
180 2 192
256 259 301
258 281 282
282 279 280
161 167 190
184 240 182
188 191 183
185 187 184
167 160 190
190 188 187
189 187 186
190 191 188
323 321 322
28 190 193
345 343 344
324 186 242
281 279 282
279 38 280
164 215 196
776 208 205
247 46 331
235 35 26
3 31 198
3 198 199
200 164 5
216 239 32
26 195 238
3 199 4
237 180 175
299 302 300
208 211 207
208 207 204
34 222 214
194 196 215
164 197 173
215 218 219
194 238 196
238 195 196
4 199 202
164 216 218
164 3 4
491 368 9
784 783 547
202 199 31
48 343 337
5 4 202
338 47 341
299 298 297
274 272 273
6 33 206
728 798 730
779 778 40
6 206 212
33 200 204
200 5 204
5 164 4
790 777 21
5 202 204
204 202 203
205 208 204
206 33 204
742 756 741
221 211 210
221 220 211
207 206 204
207 212 206
19 805 105
207 211 212
728 799 798
233 217 213
201 6 217
222 210 214
232 233 213
213 6 212
217 6 213
820 818 817
759 767 772
221 210 222
230 229 227
232 213 220
164 218 215
194 215 219
235 236 231
219 218 32
223 224 221
164 201 216
233 234 217
224 220 221
224 230 231
231 230 227
225 227 229
291 29 47
226 809 808
761 760 820
236 234 231
225 222 34
228 808 809
107 762 814
224 232 220
230 223 229
225 229 222
231 233 232
27 180 237
239 201 217
1135 1154 175
1135 175 1153
1152 1154 1135
239 217 234
236 32 239
216 201 239
290 289 278
245 182 240
38 274 275
325 321 323
245 246 242
248 332 46
313 318 312
248 249 332
245 240 181
364 365 362
323 186 324
317 44 318
325 320 321
356 357 354
283 284 285
277 278 288
322 189 186
333 49 381
305 308 306
7 249 248
329 330 336
336 330 335
7 247 250
334 332 333
384 383 385
547 783 543
265 281 258
272 279 281
789 779 788
537 536 539
257 284 283
255 263 256
495 502 494
279 272 274
100 788 785
776 205 21
277 288 39
293 287 292
8 313 42
500 499 9
372 371 311
263 265 256
312 318 311
297 295 8
313 317 318
305 43 303
367 362 366
300 303 259
60 304 43
358 350 379
292 291 294
298 285 293
289 292 287
281 265 269
29 291 28
21 205 778
779 21 778
274 273 15
259 258 257
265 258 256
290 278 204
204 203 290
271 268 270
299 283 298
293 292 294
252 253 251
257 282 284
257 258 282
284 282 280
62 61 505
785 268 782
251 267 266
783 264 543
251 266 252
272 281 269
497 496 498
60 261 304
260 252 263
261 254 304
256 258 259
256 301 255
783 782 264
280 39 286
253 252 260
497 493 495
261 538 541
544 535 534
544 534 67
550 524 551
786 787 785
251 264 267
269 265 266
272 271 273
272 269 271
270 781 780
273 40 15
101 100 787
38 279 274
98 789 100
785 270 268
286 39 288
798 102 786
275 274 15
278 277 204
290 291 289
285 286 287
491 369 368
47 340 341
285 287 293
300 259 257
295 298 293
289 288 278
287 288 289
28 290 30
30 290 31
202 31 290
305 307 308
315 296 316
283 300 257
283 299 300
308 307 310
302 305 303
303 301 259
347 337 345
304 254 255
301 304 255
308 310 370
305 302 307
307 302 41
373 367 369
530 503 513
310 307 309
311 309 312
316 294 291
314 8 296
45 315 316
45 317 315
359 357 344
353 351 348
48 338 343
247 331 330
45 316 338
325 324 246
331 342 335
46 332 334
44 48 349
245 327 246
340 321 320
246 324 242
328 319 320
323 322 186
327 326 325
326 320 325
245 36 327
327 36 326
329 328 36
326 328 320
337 343 345
332 249 37
330 329 244
250 330 244
250 247 330
346 347 345
332 49 333
331 46 342
383 332 37
347 349 337
329 336 319
351 349 348
330 331 335
343 338 341
349 48 337
348 347 346
47 339 291
339 316 291
338 316 339
338 339 47
340 322 321
340 189 322
47 193 340
340 193 190
189 340 190
346 345 344
334 344 342
341 344 343
340 344 341
344 335 342
344 336 335
344 319 336
344 320 319
344 340 320
398 374 400
357 356 344
380 382 384
10 351 352
356 353 355
349 347 348
493 11 61
389 390 379
400 397 395
361 360 376
354 353 356
360 361 357
306 308 491
376 359 375
372 10 373
373 10 367
351 10 372
525 523 66
353 354 352
505 364 363
352 351 353
358 344 350
358 379 378
359 358 377
381 49 382
359 360 357
441 436 435
433 415 432
370 371 373
366 362 365
351 372 349
370 369 491
495 62 502
504 503 502
367 366 369
368 369 366
318 372 311
512 511 514
501 368 366
10 362 367
11 492 500
437 509 508
437 453 509
514 511 64
64 515 514
517 515 64
512 508 511
498 539 540
387 388 390
254 541 253
396 394 51
376 375 445
447 442 443
422 414 404
361 444 357
393 391 388
344 381 350
360 359 376
446 445 374
381 382 350
358 378 377
350 380 379
387 390 389
384 389 380
384 382 383
350 382 380
382 49 383
389 379 380
389 386 387
391 378 390
377 378 391
375 396 397
384 386 389
397 396 51
517 521 516
61 501 365
437 439 453
430 418 54
377 391 392
532 68 536
396 392 50
394 396 50
392 393 50
392 391 393
374 375 397
395 397 51
413 414 450
441 442 448
422 450 414
399 398 400
401 400 395
401 399 400
405 412 404
1119 1118 1117
1119 410 1118
441 431 430
435 450 422
508 363 357
416 405 417
420 52 410
405 415 412
412 415 433
53 419 431
434 435 422
457 426 458
413 450 411
484 485 488
465 462 461
417 423 424
423 426 424
431 419 430
465 466 426
465 426 464
458 426 456
463 408 486
482 489 481
12 409 406
55 465 461
459 426 421
456 12 406
407 456 406
490 605 606
1114 1113 1120
441 451 436
440 441 439
402 413 411
448 449 451
405 53 415
432 53 431
418 416 54
439 54 425
52 423 410
399 448 447
434 422 412
419 405 418
53 405 419
421 420 410
419 418 430
357 441 440
361 376 445
417 405 423
417 424 425
427 424 426
425 424 427
559 70 551
615 614 609
12 459 409
423 52 426
420 426 52
421 426 420
429 428 426
506 507 504
433 434 412
429 454 439
12 426 459
451 411 436
449 399 401
440 439 438
402 449 401
13 512 514
448 399 449
452 439 454
452 454 509
437 438 439
443 444 446
402 411 451
399 447 398
446 444 445
445 375 374
447 446 398
447 443 446
448 442 447
402 451 449
68 534 535
454 467 509
458 456 407
483 488 482
453 439 452
459 410 409
421 410 459
429 455 454
457 458 408
464 457 463
462 486 487
55 461 460
59 476 484
461 462 487
463 457 408
56 55 460
476 460 484
454 455 466
635 638 639
462 463 486
464 462 465
429 466 455
429 426 466
55 56 466
55 466 465
621 475 618
466 467 454
466 57 467
521 522 523
470 563 58
570 76 571
58 471 472
570 571 568
471 469 473
522 520 65
526 528 527
612 613 478
58 472 470
479 477 0
474 466 56
473 466 474
473 474 471
474 476 59
614 610 608
614 615 474
478 477 479
481 489 480
56 460 476
614 78 610
408 407 486
72 470 619
483 482 0
78 474 613
480 490 478
409 410 486
410 148 486
460 485 484
485 487 488
480 479 481
406 409 486
59 484 483
460 461 485
461 487 485
608 610 603
586 605 490
619 472 474
609 614 608
72 563 470
65 66 522
148 1120 1113
554 71 553
1131 1130 1129
1117 1124 149
502 503 494
508 440 438
537 532 536
368 500 9
13 513 512
517 516 515
573 578 579
550 551 70
515 516 527
527 528 63
529 14 531
68 535 536
521 523 516
543 264 251
544 543 535
494 532 496
560 558 557
63 528 529
545 525 546
544 533 545
533 526 525
519 522 521
511 508 509
492 499 500
68 531 14
494 496 495
558 556 553
520 551 65
553 71 70
509 510 64
510 517 64
544 67 533
467 510 509
262 543 251
13 530 513
11 493 497
501 366 365
495 496 497
541 540 262
11 497 492
62 504 502
62 493 61
496 539 498
261 60 499
494 531 532
533 528 526
499 60 9
497 498 492
504 62 505
505 61 364
507 503 504
507 506 508
505 363 506
514 63 13
507 508 512
453 452 509
504 505 506
518 57 519
506 363 508
517 518 521
522 66 523
467 57 518
467 518 510
510 518 517
516 526 527
67 14 528
531 68 532
523 526 516
533 525 545
529 531 530
63 529 13
503 530 494
529 530 13
531 494 530
541 538 540
261 499 538
68 14 534
534 14 67
71 549 550
496 537 539
498 540 538
566 581 569
536 535 543
519 560 520
270 780 271
708 90 651
536 543 542
69 545 546
546 524 550
548 549 71
548 69 549
69 547 544
780 99 40
780 40 273
544 547 543
560 468 469
519 468 560
520 552 551
569 581 75
557 553 70
552 560 559
569 565 566
553 556 554
625 623 626
520 560 552
582 547 577
555 565 564
563 73 565
619 474 475
555 563 565
729 728 730
571 76 573
786 102 795
561 562 563
72 561 563
560 563 558
558 563 556
556 563 554
563 555 554
567 568 580
564 565 569
578 577 75
576 582 577
574 76 572
579 580 573
578 574 584
578 584 575
580 571 573
732 757 803
579 578 75
576 578 575
576 577 578
566 567 581
581 567 580
583 797 582
582 575 583
625 626 79
101 787 103
781 270 785
687 713 88
796 798 786
787 795 103
701 699 89
644 645 79
647 645 646
647 646 648
648 646 649
648 649 90
622 585 624
90 624 585
618 475 617
470 472 619
629 615 609
87 687 685
697 703 693
92 718 723
652 651 90
570 568 624
90 570 624
565 73 617
712 698 692
616 617 475
567 566 617
566 565 617
617 568 567
623 568 617
647 90 585
79 635 631
623 617 626
1103 590 589
1102 593 1104
633 79 632
81 642 84
586 603 605
607 606 605
603 607 605
632 79 631
613 474 477
587 608 586
1061 1104 1103
1103 592 591
602 637 636
589 638 637
490 606 478
588 604 587
1063 1072 1073
589 590 638
592 593 597
597 641 596
591 596 77
1099 1106 595
1 81 666
658 657 669
591 592 596
598 600 601
81 645 642
599 600 598
79 628 630
622 624 627
628 636 630
587 604 608
620 475 621
640 631 639
608 603 586
610 611 607
618 562 621
638 590 77
596 640 77
610 78 611
637 630 636
606 611 612
602 604 637
78 614 474
635 630 638
621 561 620
620 561 72
615 475 474
629 628 475
619 620 72
621 562 561
619 475 620
630 637 638
615 629 475
616 475 628
644 643 645
568 623 625
568 625 624
634 79 633
627 625 79
624 625 627
616 628 79
633 641 601
79 630 635
640 639 77
641 640 596
628 629 636
658 83 663
641 632 640
639 638 77
629 609 636
636 609 602
633 632 641
601 641 597
1100 595 594
666 81 84
645 82 654
664 643 599
645 643 642
600 599 643
644 600 643
634 600 644
644 79 634
645 622 627
647 648 90
622 645 647
670 659 1070
653 651 80
702 697 699
707 709 90
671 670 139
574 572 709
709 572 90
649 652 90
649 646 652
708 695 707
1018 138 671
663 662 661
658 669 83
642 664 84
642 643 664
663 82 658
671 663 670
656 655 654
595 664 594
595 84 664
700 701 89
664 599 594
85 80 660
656 660 80
1058 1018 1019
670 663 659
1068 1066 1069
663 83 662
671 660 663
139 1067 1022
656 663 660
662 83 1071
663 654 82
656 654 663
657 82 665
667 82 1
1071 83 1072
669 657 668
1075 1 1076
1064 1071 1072
1020 671 1021
85 660 671
1059 1019 1020
1019 671 1020
696 695 694
674 650 672
674 672 1017
672 650 653
676 677 675
676 675 1017
678 673 1016
677 1016 673
677 673 678
1051 979 132
115 970 969
1003 1005 137
987 989 990
695 703 704
698 699 697
715 719 720
983 975 984
943 944 942
722 724 727
135 998 136
998 86 1011
653 694 651
714 713 689
984 975 974
681 86 995
869 870 864
987 990 985
697 702 703
683 991 990
982 977 133
703 695 696
682 684 681
681 684 86
994 685 990
683 88 684
134 984 974
713 711 684
687 87 688
859 689 860
17 855 859
989 994 990
707 704 706
712 692 693
136 998 1003
712 696 694
713 684 88
92 723 722
705 704 703
92 91 719
688 87 686
687 88 685
868 869 864
720 712 714
16 731 700
690 89 691
712 690 691
712 693 696
584 574 705
691 699 698
694 708 651
693 703 696
704 705 706
583 575 702
708 707 90
702 575 705
719 91 720
574 706 705
718 716 717
695 704 707
685 88 683
691 89 699
574 709 706
91 92 721
92 719 718
1014 86 1015
650 677 710
650 710 653
710 694 653
712 691 698
677 678 711
677 711 710
711 678 679
680 679 678
86 711 679
86 679 680
711 86 684
16 700 721
714 712 713
725 94 93
102 800 794
715 720 714
712 720 690
746 832 747
719 715 716
712 694 710
715 18 716
713 710 711
712 710 713
718 725 723
724 725 93
724 723 725
718 743 742
726 728 727
724 93 726
102 799 800
742 740 718
718 740 725
738 739 740
736 94 737
737 738 734
728 736 799
737 739 738
850 848 744
860 686 862
717 854 853
854 858 857
718 717 743
738 740 735
750 806 756
104 802 794
802 793 794
734 735 733
738 735 734
93 94 736
835 932 837
830 748 831
913 840 912
20 746 742
742 743 744
717 744 743
755 752 748
744 846 847
742 744 847
760 761 764
767 768 209
747 750 756
773 209 97
753 833 748
831 748 833
110 831 828
837 828 836
747 756 742
753 749 750
750 754 753
826 821 755
753 748 749
755 111 752
747 754 750
754 747 745
801 105 104
807 791 793
756 806 757
105 802 104
742 741 740
733 741 756
732 756 757
772 767 209
732 733 756
105 804 802
759 772 775
759 775 777
807 777 791
797 784 547
758 96 759
95 96 758
819 762 761
762 763 761
811 763 762
214 209 773
821 111 755
760 766 111
816 814 1155
34 773 226
813 809 812
770 771 209
34 214 773
771 97 209
770 811 774
107 811 762
761 763 768
763 769 768
106 813 812
768 769 209
761 768 767
809 97 812
769 770 209
761 767 764
765 764 767
766 765 767
751 766 767
752 751 767
748 752 767
748 767 96
759 96 767
774 811 810
774 97 771
771 770 774
107 816 815
107 814 816
808 228 227
812 97 774
772 209 777
98 21 789
777 776 21
778 277 276
778 275 15
789 21 779
778 276 275
778 204 277
40 778 15
736 737 799
204 778 205
267 264 782
268 267 782
784 786 785
788 99 781
788 779 99
100 789 788
759 805 806
758 759 806
791 777 790
101 103 792
800 104 794
101 792 98
791 790 792
796 784 797
792 790 98
759 804 805
797 798 796
799 102 798
799 737 734
732 801 734
801 799 734
732 803 801
757 806 803
803 806 19
806 805 19
95 758 806
750 95 806
1168 227 815
823 821 1157
227 228 815
820 829 818
106 810 815
813 106 815
819 820 817
761 820 819
822 823 1156
815 810 107
824 821 826
829 821 823
829 823 822
109 110 825
820 760 829
829 111 821
1157 821 824
826 755 827
1157 824 1158
1157 1158 935
818 822 1156
829 822 818
825 110 828
817 818 1156
1155 817 1156
120 121 926
1159 1160 935
934 933 935
933 837 935
748 830 827
754 833 753
108 824 827
827 830 109
830 110 109
153 1157 935
828 831 833
927 839 113
815 816 1156
154 1156 935
1156 153 935
846 744 845
1158 824 108
121 920 927
828 833 836
919 937 929
934 1160 825
838 112 834
837 836 835
835 838 932
937 930 929
933 828 837
836 833 835
835 112 838
933 934 825
120 926 923
925 929 931
930 931 929
930 838 931
825 828 933
931 838 834
921 914 918
921 922 913
832 841 833
839 841 113
847 846 843
846 845 114
121 927 926
910 119 843
120 923 921
913 912 914
842 843 840
919 929 928
926 113 924
918 919 920
919 928 920
842 841 832
842 840 841
20 843 844
20 844 746
20 847 843
20 742 847
845 744 848
849 848 850
878 958 953
889 848 849
879 878 953
717 850 744
888 889 849
951 956 955
854 857 853
876 877 882
877 884 882
872 870 869
941 129 965
714 855 715
714 689 855
858 868 864
994 988 686
129 967 968
878 883 885
983 992 133
865 856 857
858 861 868
87 685 994
989 987 986
851 856 850
852 717 856
852 856 851
966 968 969
866 880 856
859 860 115
859 855 689
861 858 17
868 861 863
858 864 857
862 970 115
870 865 864
127 125 954
862 988 867
966 971 972
127 126 962
873 872 964
965 968 966
941 972 971
866 865 871
964 872 130
873 870 872
895 117 897
878 877 958
941 971 973
881 875 876
879 883 878
871 870 873
891 892 887
873 874 871
886 887 856
960 959 875
877 876 958
871 874 880
892 888 887
880 874 875
953 958 952
876 875 959
962 960 874
952 958 959
882 884 856
885 886 856
878 885 884
887 886 883
883 886 885
880 881 856
881 882 856
884 885 856
850 887 888
856 887 850
877 878 884
888 849 850
892 890 888
121 120 918
124 892 891
903 901 902
116 909 888
125 879 954
883 891 887
956 899 955
845 907 114
845 848 907
897 908 896
891 879 125
895 897 898
897 955 898
955 893 892
955 896 894
908 117 888
846 114 907
896 908 909
905 899 956
955 894 893
895 898 906
905 956 118
903 119 118
901 900 950
906 905 889
957 904 902
905 118 907
910 907 118
896 909 116
904 119 902
900 901 903
901 957 902
905 906 899
900 903 118
902 119 903
918 904 957
911 840 119
119 910 118
909 908 888
916 917 918
905 907 889
917 119 904
846 907 910
916 119 917
846 910 843
911 915 912
841 924 113
120 921 918
917 904 918
912 840 911
914 921 913
914 915 918
911 119 916
911 916 915
964 961 873
124 955 892
918 920 121
922 840 913
922 923 840
841 840 924
923 926 924
923 922 921
925 841 839
936 930 937
932 838 930
932 930 936
935 837 932
1159 109 1160
1163 1162 1148
127 941 940
938 940 941
938 127 940
1041 1042 143
938 941 945
943 23 944
950 957 901
1082 1086 1078
988 986 867
950 900 951
1090 123 1085
128 129 941
941 942 944
127 128 941
123 1089 1088
1088 23 1077
123 1145 1151
943 1078 23
943 975 1078
947 944 946
144 1093 1094
945 941 947
947 941 944
154 935 1164
122 939 938
950 22 1161
950 918 957
127 961 964
950 951 22
951 949 22
955 124 127
963 955 127
938 955 963
938 963 127
952 959 126
962 126 960
967 868 968
954 879 953
939 955 938
896 955 897
951 900 956
900 118 956
960 126 959
941 965 972
961 874 873
968 868 863
129 968 965
984 985 983
130 872 967
967 869 868
129 130 967
867 134 973
966 972 965
969 970 966
970 971 966
985 990 991
988 862 686
984 134 987
970 867 971
985 991 992
974 942 973
941 973 942
943 974 975
867 973 971
134 974 973
943 942 974
983 985 992
992 982 133
986 134 867
982 993 999
995 86 1001
137 980 981
980 132 979
995 1001 996
976 983 133
1006 1012 1007
1007 1013 1008
1005 1003 1006
982 999 978
981 980 979
1056 1055 1054
137 1005 980
981 1004 137
683 682 991
1000 981 131
999 993 996
988 989 986
87 994 686
685 683 990
992 993 982
992 991 993
994 989 988
1004 136 137
978 1000 131
1005 132 980
978 999 1000
996 993 991
995 996 991
86 135 997
1001 1000 999
996 1001 999
1002 136 1004
1011 86 1012
1001 86 997
997 1002 1001
1004 1000 1002
1006 1011 1012
1007 1012 1013
1008 1014 1015
136 1003 137
1045 1056 1009
1050 1053 1049
1053 1007 1008
1031 1043 1044
1050 979 1051
1024 1016 1032
1044 1010 1033
86 680 1015
1016 1015 680
1013 86 1014
1003 1011 1006
676 1016 677
676 1017 1016
1048 1049 1055
1008 1013 1014
678 1016 680
1054 1055 1008
1032 1044 1024
1038 1031 140
1034 141 1036
1033 1016 1024
1010 1016 1033
1046 979 1047
1057 138 1018
1020 1021 1060
1040 1039 1027
1060 1021 1022
1069 1066 142
661 662 1068
1058 1059 141
1021 671 139
1016 1026 140
670 1070 139
1057 1018 1058
138 1030 1029
1023 138 1029
141 1035 1057
1017 672 1023
1023 672 653
653 80 1023
138 1023 671
85 671 1023
85 1023 80
138 1034 1028
1043 1045 1010
138 1035 1034
1027 1039 1026
1032 1016 1025
140 1031 1025
1039 1038 1026
1055 1053 1008
1029 1027 1017
1023 1029 1017
1046 1045 1043
1029 1040 1027
1049 1053 1055
1057 1058 141
1026 1038 140
1043 1041 143
1040 1043 1039
1041 1043 1040
1047 1048 1056
1041 1040 1029
1042 1041 1029
1030 1037 1042
1030 1042 1029
1038 1043 1031
1039 1043 1038
1054 1016 1009
1052 1005 1006
1047 1056 1045
1046 1047 1045
1043 979 1046
1045 1009 1010
1078 976 133
1080 1043 1081
1015 1016 1054
1049 979 1050
1053 1052 1007
1052 1006 1007
1008 1015 1054
1056 1054 1009
1050 1051 1053
1053 1051 1052
1059 1060 141
662 1071 1068
1068 1065 1066
1022 1067 141
659 661 1069
1070 1069 142
1042 1037 143
1074 667 1075
1076 1 666
1072 669 1073
1075 667 1
1061 1075 1076
1074 668 667
1072 83 669
1063 1064 1072
1068 1071 1065
1066 141 142
1065 1071 1064
1062 1073 1074
1067 142 141
661 1068 1069
1070 659 1069
139 1070 1067
1062 1063 1073
1081 1043 143
1088 1089 23
1082 1083 1085
123 1087 1086
1078 979 1079
143 1036 141
1078 975 976
1078 1077 23
1092 1090 1085
1083 1081 1084
946 944 1089
1089 944 23
977 1078 133
978 1078 977
131 1078 978
131 979 1078
1082 1079 979
1043 1082 979
1082 1078 1079
1080 1082 1043
1084 1081 143
1080 1083 1082
1080 1081 1083
123 1086 1085
1107 1092 1084
144 1091 1093
1093 1091 1092
1083 1084 1092
1083 1092 1085
1091 1090 1092
1110 1095 1109
1094 1095 1096
1115 1113 1114
1094 1096 144
1112 489 1113
1130 1132 1125
1096 1098 1097
1145 1097 1098
22 1149 1148
1145 123 1090
1108 1109 1061
1109 146 1061
1064 1063 1107
1062 1061 1107
1063 1062 1107
1061 1076 1106
141 1066 1107
1061 1099 1100
666 84 1106
594 598 1101
1103 587 586
1105 1061 1103
1103 591 590
1103 588 587
1107 1061 146
1061 1106 1099
1107 1084 143
1107 143 141
1065 1107 1066
1065 1064 1107
1093 1092 1107
1115 1112 1113
1109 1093 1107
1105 147 1110
1108 1111 1109
1094 1109 1095
1094 1093 1109
1107 146 1109
1105 1103 147
1111 1110 1109
147 1103 1112
1115 1095 1110
1121 1119 1117
1121 410 1119
1112 1115 1110
1096 1127 1098
1113 489 488
1113 488 486
1113 486 148
1114 1120 1116
423 405 1118
410 423 1118
148 410 1121
1121 1117 1120
148 1121 1120
385 1152 1122
1118 1124 1117
1126 1098 1127
1126 1127 1129
1126 1129 1098
1128 1131 1129
1132 1130 1131
1127 1116 149
1124 405 1123
405 1124 1118
388 387 1122
51 1122 395
1122 1123 395
51 394 1122
394 50 1122
50 393 1122
393 388 1122
387 386 1122
386 385 1122
1131 150 1132
1131 151 150
1127 1114 1116
1129 1125 1098
1127 1115 1114
1115 1127 1095
1127 1096 1095
1132 1133 1134
149 1129 1127
149 1124 1128
1129 149 1128
1122 1131 1123
1131 1124 1123
1131 1122 1152
1131 1128 1124
1134 24 145
1144 1143 1142
155 1172 1137
1152 245 1154
155 1169 1172
1141 1142 1140
1137 1140 1138
1163 1147 1164
1143 1145 24
1165 1167 1156
1165 1164 1167
1170 1167 1166
1145 145 24
1143 1144 1145
1140 1142 1143
1143 24 1134
1133 1143 1134
1140 1143 1133
1091 1145 1090
1097 1145 144
144 1145 1091
1149 1147 1148
1163 1164 935
1146 1149 1145
1162 935 1161
1146 1147 1149
1147 1163 1148
22 949 1150
1149 1150 152
22 1150 1149
123 1151 946
1151 947 946
1151 945 947
948 945 1151
948 1151 152
815 1156 1168
1166 1164 1146
1147 1146 1164
1141 1166 1146
1152 1135 151
1131 1152 151
385 37 1152
37 249 1152
249 7 1152
7 250 1152
250 244 1152
1154 243 175
1172 1169 1170
155 1173 1169
814 819 1155
1168 1170 1169
1155 819 817
108 109 1159
108 1159 1158
950 1161 918
919 918 1161
936 1161 935
937 1161 936
919 1161 937
1148 1162 22
1161 22 1162
1168 1167 1170
154 1164 1165
1166 1167 1164
154 1165 1156
1168 1169 227
1156 1167 1168
1173 35 235
231 227 1169
1141 1140 1172
1171 1138 1136
1137 1138 1171
155 1137 1171
1170 1141 1172
155 1171 1173
1171 1136 1173
231 1174 235
1174 1173 235
1174 1169 1173
231 1169 1174
